{
	"conn": {
		"protocols": {
			"http": ["http-get", "http-post", "https-post", "json-creation-and-post"]
		}
	},
	"external-ics": {
		"sensor": {
			"gas-sensor": ["mq5-sensor"],
			"temperature": ["lm35-sensor", "dht22-sensor"]
		}
	},
	"getting-started": ["blink-led", "hello-world"],
	"hmi": {
		"button": ["button-interaction", "multi-button", "btn-custom-long-interaction", "btn-long-interaction"],
		"clcd": ["clcd-display-string", "clcd-multi-features", "clcd-multiline-string", "clcd-overwrite-string", "clcd-scroll-string"],
		"led": ["led-pattern", "single-led", "unix-current-time"]
	},
	"input-processor": ["json-array-create", "json-create", "nested-json-create", "parser-json"],
	"iot-cloud": {
		"mig-cloud": {
			"appconfig-helper": ["appconfig-ex"] ,
			"apppostdata-helper":["apppostdata-ex"],
			"apppostdata-helper":["simple-migcloud-postdata"]
		}
	},
	"logging": ["logger"],
	"peripherals": {
		"adc": ["adc-pot", "lm35"],
		"gpio": ["blink-led", "gpio-intr"],
		"i2c": ["eeprom-module", "i2c-master-slave", "rtc-module"],
		"pwm": {
			"led-pwm": ["led-fade-api-ex", "led-fade-duty", "led-pwm-with-rgb-led", "vibgyor-rainbow-colour"]
		},
		"uart": ["uart-handshake", "uart-loop-back"]
	},
	"persistent": ["persistent-rw-value"],
	"system": {
		"systime": ["millisecond-to-time", "second-to-time", "system-time", "time-diff", "time-set-get", "time-to-second", "tm-diff-now", "tm-to-sec"],
		"utils": ["system-factory-reset-event"]
	},
	"threading": ["data-exchange-into-threads", "multi-thread", "multi-thread-manager", "multi-thread-switching", "thread-life-cycle"]
}
